{
	"sprites": [
		{
			"name": "down_right",
			"offset_px_x": 0,
			"offset_px_y": 0,
			"sprite_width": 32,
			"sprite_height": 32,
			"frames": 1
		},
		{
			"name": "left_right",
			"offset_px_x": 32,
			"offset_px_y": 0,
			"sprite_width": 32,
			"sprite_height": 32,
			"frames": 1
		},
		{
			"name": "down_left",
			"offset_px_x": 64,
			"offset_px_y": 0,
			"sprite_width": 32,
			"sprite_height": 32,
			"frames": 1
		},
		{
			"name": "head_up",
			"offset_px_x": 96,
			"offset_px_y": 0,
			"sprite_width": 32,
			"sprite_height": 32,
			"frames": 1
		},
		{
			"name": "head_right",
			"offset_px_x": 128,
			"offset_px_y": 0,
			"sprite_width": 32,
			"sprite_height": 32,
			"frames": 1
		},
		{
			"name": "up_right",
			"offset_px_x": 0,
			"offset_px_y": 32,
			"sprite_width": 32,
			"sprite_height": 32,
			"frames": 1
		},
		{
			"name": "wall",
			"offset_px_x": 32,
			"offset_px_y": 32,
			"sprite_width": 32,
			"sprite_height": 32,
			"frames": 1
		},
		{
			"name": "up_down",
			"offset_px_x": 64,
			"offset_px_y": 32,
			"sprite_width": 32,
			"sprite_height": 32,
			"frames": 1
		},
		{
			"name": "head_left",
			"offset_px_x": 96,
			"offset_px_y": 32,
			"sprite_width": 32,
			"sprite_height": 32,
			"frames": 1
		},
		{
			"name": "head_down",
			"offset_px_x": 128,
			"offset_px_y": 32,
			"sprite_width": 32,
			"sprite_height": 32,
			"frames": 1
		},
		{
			"name": "life",
			"offset_px_x": 0,
			"offset_px_y": 64,
			"sprite_width": 32,
			"sprite_height": 32,
			"frames": 1
		},
		{
			"name": "up_left",
			"offset_px_x": 64,
			"offset_px_y": 64,
			"sprite_width": 32,
			"sprite_height": 32,
			"frames": 1
		},
		{
			"name": "tail_down",
			"offset_px_x": 96,
			"offset_px_y": 64,
			"sprite_width": 32,
			"sprite_height": 32,
			"frames": 1
		},
		{
			"name": "tail_left",
			"offset_px_x": 128,
			"offset_px_y": 64,
			"sprite_width": 32,
			"sprite_height": 32,
			"frames": 1
		},
		{
			"name": "apple",
			"offset_px_x": 0,
			"offset_px_y": 96,
			"sprite_width": 32,
			"sprite_height": 32,
			"frames": 1
		},
		{
			"name": "tail_right",
			"offset_px_x": 96,
			"offset_px_y": 96,
			"sprite_width": 32,
			"sprite_height": 32,
			"frames": 1
		},
		{
			"name": "tail_up",
			"offset_px_x": 128,
			"offset_px_y": 96,
			"sprite_width": 32,
			"sprite_height": 32,
			"frames": 1
		}
	],
	"levels_maps" : [
		[
		  [0,0,0,0,0,0,0,0,0,0,0,0,0,0,0,0,0,0,0,0,0,0,0,0,0,0,0,0,0,0,0,0],
		  [0,0,0,0,0,0,0,0,0,0,0,0,0,0,0,0,0,0,0,0,0,0,0,0,0,0,0,0,0,0,0,0],
		  [0,0,0,0,0,0,0,0,0,0,0,0,0,0,0,0,0,0,0,0,0,0,0,0,0,0,0,0,0,0,0,0],
		  [0,0,0,0,0,0,0,0,0,0,0,0,0,0,0,0,0,0,0,0,0,0,0,0,0,0,0,0,0,0,0,0],
		  [0,0,0,0,0,0,0,0,0,0,0,0,0,0,0,0,0,0,0,0,0,0,0,0,0,0,0,0,0,0,0,0],
		  [0,0,0,0,0,0,0,0,0,0,0,0,0,0,0,0,0,0,0,0,0,0,0,0,0,0,0,0,0,0,0,0],
		  [0,0,0,0,0,0,0,0,0,0,0,0,0,0,0,3,4,5,0,0,0,0,0,0,0,0,0,0,0,0,0,0],
		  [0,0,0,0,0,0,0,0,0,0,0,0,0,0,0,10,9,6,0,0,0,0,0,0,0,0,0,0,0,0,0,0],
		  [0,0,0,0,0,0,0,0,0,0,0,0,0,0,0,11,8,7,0,0,0,0,0,0,0,0,0,0,0,0,0,0],
		  [0,0,0,0,0,0,0,0,0,0,0,0,0,0,0,0,0,0,0,0,0,0,0,0,0,0,0,0,0,0,0,0],
		  [0,0,0,0,0,0,0,0,0,0,0,0,0,0,0,0,0,0,0,0,0,0,0,0,0,0,0,0,0,0,0,0],
		  [0,0,0,0,0,0,0,0,0,0,0,0,0,0,0,0,0,0,0,0,0,0,0,0,0,0,0,0,0,0,0,0],
		  [0,0,0,0,0,0,0,0,0,0,0,0,0,0,0,0,0,0,0,0,0,0,0,0,0,0,0,0,0,0,0,0],
		  [0,0,0,0,0,0,0,0,0,0,0,0,0,0,0,0,0,0,0,0,0,0,0,0,0,0,0,0,0,0,0,0],
		  [0,0,0,0,0,0,0,0,0,0,0,0,0,0,0,0,0,0,0,0,0,0,0,0,0,0,0,0,0,0,0,0],
		  [0,0,0,0,0,0,0,0,0,0,0,0,0,0,0,0,0,0,0,0,0,0,0,0,0,0,0,0,0,0,0,0],
		  [0,0,0,0,0,0,0,0,0,0,0,0,0,0,0,0,0,0,0,0,0,0,0,0,0,0,0,0,0,0,0,0],
		  [0,0,0,0,0,0,0,0,0,0,0,0,0,0,0,0,0,0,0,0,0,0,0,0,0,0,0,0,0,0,0,0],
		  [0,0,0,0,0,0,0,0,0,0,0,0,0,0,0,0,0,0,0,0,0,0,0,0,0,0,0,0,0,0,0,0],
		  [0,0,0,0,0,0,0,0,0,0,0,0,0,0,0,0,0,0,0,0,0,0,0,0,0,0,0,0,0,0,0,0]
	   ],
	   [
		[1,1,0,0,0,0,0,0,0,0,0,0,0,0,0,0,0,0,0,0,0,0,0,0,0,0,0,0,0,0,1,1],
		[1,0,0,0,0,0,0,0,0,0,0,0,0,0,0,0,0,0,0,0,0,0,0,0,0,0,0,0,0,0,0,1],
		[0,0,0,0,0,0,0,0,0,0,0,0,0,0,0,0,0,0,0,0,0,0,0,0,0,0,0,0,0,0,0,0],
		[0,0,0,0,0,0,0,1,1,1,0,0,0,0,0,0,0,0,0,0,0,1,1,1,0,0,0,0,0,0,0,0],
		[0,0,0,0,0,0,0,1,1,1,0,0,0,0,0,0,0,0,0,0,0,1,1,1,0,0,0,0,0,0,0,0],
		[0,0,0,0,0,0,0,1,1,1,0,0,0,0,0,3,0,0,0,0,0,1,1,1,0,0,0,0,0,0,0,0],
		[0,0,0,0,0,0,0,1,1,1,0,0,0,0,0,4,0,0,0,0,0,1,1,1,0,0,0,0,0,0,0,0],
		[0,0,0,0,0,0,0,1,1,1,0,0,0,0,0,5,0,0,0,0,0,1,1,1,0,0,0,0,0,0,0,0],
		[0,0,0,0,0,0,0,1,1,1,0,0,0,0,0,6,0,0,0,0,0,1,1,1,0,0,0,0,0,0,0,0],
		[0,0,0,0,0,0,0,1,1,1,0,0,0,0,0,7,0,0,0,0,0,1,1,1,0,0,0,0,0,0,0,0],
		[0,0,0,0,0,0,0,1,1,1,0,0,0,0,0,8,0,0,0,0,0,1,1,1,0,0,0,0,0,0,0,0],
		[0,0,0,0,0,0,0,1,1,1,0,0,0,0,0,0,0,0,0,0,0,1,1,1,0,0,0,0,0,0,0,0],
		[0,0,0,0,0,0,0,1,1,1,0,0,0,0,0,0,0,0,0,0,0,1,1,1,0,0,0,0,0,0,0,0],
		[0,0,0,0,0,0,0,1,1,1,0,0,0,0,0,0,0,0,0,0,0,1,1,1,0,0,0,0,0,0,0,0],
		[0,0,0,0,0,0,0,1,1,1,0,0,0,0,0,0,0,0,0,0,0,1,1,1,0,0,0,0,0,0,0,0],
		[0,0,0,0,0,0,0,1,1,1,0,0,0,0,0,0,0,0,0,0,0,1,1,1,0,0,0,0,0,0,0,0],
		[0,0,0,0,0,0,0,1,1,1,0,0,0,0,0,0,0,0,0,0,0,1,1,1,0,0,0,0,0,0,0,0],
		[0,0,0,0,0,0,0,0,0,0,0,0,0,0,0,0,0,0,0,0,0,0,0,0,0,0,0,0,0,0,0,0],
		[1,0,0,0,0,0,0,0,0,0,0,0,0,0,0,0,0,0,0,0,0,0,0,0,0,0,0,0,0,0,0,1],
		[1,1,0,0,0,0,0,0,0,0,0,0,0,0,0,0,0,0,0,0,0,0,0,0,0,0,0,0,0,0,1,1]
	 ],
	 [
		[1,1,0,0,0,0,0,0,0,0,0,0,0,0,0,0,0,0,0,0,0,0,0,0,0,0,0,0,0,0,1,1],
		[1,0,0,0,0,0,0,0,0,0,0,0,0,0,0,0,0,0,0,0,0,0,0,0,0,0,0,0,0,0,0,1],
		[0,0,0,0,0,0,0,0,0,0,0,0,0,0,0,0,0,0,0,0,0,0,0,0,0,0,0,0,0,0,0,0],
		[0,0,0,0,0,0,0,1,1,1,0,0,0,0,0,0,0,0,0,0,0,1,1,1,0,0,0,0,0,0,0,0],
		[0,0,0,0,0,0,0,1,1,1,0,0,0,0,0,0,0,0,0,0,0,1,1,1,0,0,0,0,0,0,0,0],
		[0,0,0,0,0,0,0,1,1,1,0,0,0,0,0,3,0,0,0,0,0,1,1,1,0,0,0,0,0,0,0,0],
		[0,0,0,0,0,0,0,1,1,1,0,0,0,0,0,4,0,0,0,0,0,1,1,1,0,0,0,0,0,0,0,0],
		[0,0,0,0,0,0,0,1,1,1,0,0,0,0,0,5,0,0,0,0,0,1,1,1,0,0,0,0,0,0,0,0],
		[0,0,0,0,0,0,0,1,1,1,0,0,0,0,0,6,0,0,0,0,0,1,1,1,0,0,0,0,0,0,0,0],
		[0,0,0,0,0,0,0,1,1,1,0,0,0,0,0,7,0,0,0,0,0,1,1,1,0,0,0,0,0,0,0,0],
		[0,0,0,0,0,0,0,1,1,1,0,0,0,0,0,8,0,0,0,0,0,1,1,1,0,0,0,0,0,0,0,0],
		[0,0,0,0,0,0,0,1,1,1,0,0,0,0,0,0,0,0,0,0,0,1,1,1,0,0,0,0,0,0,0,0],
		[0,0,0,0,0,0,0,1,1,1,0,0,0,0,0,0,0,0,0,0,0,1,1,1,0,0,0,0,0,0,0,0],
		[0,0,0,0,0,0,0,1,1,1,0,0,0,0,0,0,0,0,0,0,0,1,1,1,0,0,0,0,0,0,0,0],
		[0,0,0,0,0,0,0,1,1,1,0,0,0,0,0,0,0,0,0,0,0,1,1,1,0,0,0,0,0,0,0,0],
		[0,0,0,0,0,0,0,1,1,1,0,0,1,1,1,1,1,1,1,0,0,1,1,1,0,0,0,0,0,0,0,0],
		[0,0,0,0,0,0,0,1,1,1,0,0,1,1,1,1,1,1,1,0,0,1,1,1,0,0,0,0,0,0,0,0],
		[0,0,0,0,0,0,0,0,0,0,0,0,1,1,1,1,1,1,1,0,0,0,0,0,0,0,0,0,0,0,0,0],
		[1,0,0,0,0,0,0,0,0,0,0,0,0,0,0,0,0,0,0,0,0,0,0,0,0,0,0,0,0,0,0,1],
		[1,1,0,0,0,0,0,0,0,0,0,0,0,0,0,0,0,0,0,0,0,0,0,0,0,0,0,0,0,0,1,1]
	 ]
	],
	"levels_parameters" : {
		"lives": [1, 3, 5]
	}
}